{
  "neymar": {
    "username": "neymar",
    "password": "neymar",
    "email": "neymar@gmail.com",
    "name": "Neymar",
    "surname": "Junior",
    "dateOfBirth": "05.02.1992.",
    "gender": "MALE",
    "role": "USER",
    "profilePic": "./WebContent/users/neymar/neymar1.jpg",
    "posts": [
      {
        "id": "4",
        "authorUsername": "neymar",
        "image": "./WebContent/users/neymar/neymar1.jpg",
        "text": "Profile",
        "comments": [],
        "timestamp": "04.02.2022. 14:24:58",
        "type": "IMAGE",
        "isDeleted": false
      },
      {
        "id": "5",
        "authorUsername": "neymar",
        "text": "Novi post",
        "comments": [],
        "timestamp": "04.02.2022. 14:28:20",
        "type": "POST",
        "isDeleted": false
      },
      {
        "id": "6",
        "authorUsername": "neymar",
        "image": "./WebContent/users/neymar/neymar3.jpg",
        "text": "Good weekend behind us",
        "comments": [],
        "timestamp": "04.02.2022. 14:29:52",
        "type": "IMAGE",
        "isDeleted": false
      }
    ],
    "friendRequests": [
      {
        "id": "7",
        "sender": "jovansa",
        "recipient": "neymar",
        "status": "ACCEPTED",
        "timestamp": "04.02.2022. 15:19:12"
      }
    ],
    "friendList": [
      "jovansa"
    ],
    "isPrivate": true,
    "isBlocked": false
  },
  "vlahovic": {
    "username": "vlahovic",
    "password": "vlahovic",
    "email": "dvlahovic@outlook.com",
    "name": "Dusan",
    "surname": "Vlahovic",
    "dateOfBirth": "28.01.2000.",
    "gender": "MALE",
    "role": "USER",
    "profilePic": "./WebContent/users/vlahovic/vlahovic2.jpg",
    "posts": [
      {
        "id": "21",
        "authorUsername": "vlahovic",
        "image": "./WebContent/users/vlahovic/vlahovic1.jpg",
        "text": "Potpisao za staru damu.",
        "comments": [],
        "timestamp": "04.02.2022. 14:44:30",
        "type": "IMAGE",
        "isDeleted": false
      },
      {
        "id": "22",
        "authorUsername": "vlahovic",
        "image": "./WebContent/users/vlahovic/vlahovic2.jpg",
        "text": "Viola hvala za sve!!!",
        "comments": [],
        "timestamp": "04.02.2022. 14:44:43",
        "type": "IMAGE",
        "isDeleted": false
      },
      {
        "id": "23",
        "authorUsername": "vlahovic",
        "image": "./WebContent/users/vlahovic/vlahovic3.jpg",
        "text": "Golazzo",
        "comments": [],
        "timestamp": "04.02.2022. 14:44:53",
        "type": "POST",
        "isDeleted": true
      }
    ],
    "friendRequests": [],
    "friendList": [],
    "isPrivate": false,
    "isBlocked": false
  },
  "djosa": {
    "username": "djosa",
    "password": "djosa",
    "email": "djosa27@gmail.com",
    "name": "Djole",
    "surname": "Jovanovic",
    "dateOfBirth": "06.01.2001.",
    "gender": "MALE",
    "role": "ADMINISTRATOR",
    "profilePic": "./WebContent/users/djosa/djosa1.jpg",
    "posts": [
      {
        "id": "26",
        "authorUsername": "djosa",
        "image": "./WebContent/users/djosa/djosa1.jpg",
        "comments": [],
        "timestamp": "04.02.2022. 15:14:27",
        "type": "IMAGE",
        "isDeleted": false
      }
    ],
    "friendRequests": [],
    "friendList": [
      "leomessi",
      "pogboom",
      "cristiano"
    ],
    "isPrivate": false,
    "isBlocked": false
  },
  "bastian": {
    "username": "bastian",
    "password": "bastian",
    "email": "bastian@gmail.com",
    "name": "Bastian",
    "surname": "Schweinsteiger",
    "dateOfBirth": "01.08.1984.",
    "gender": "MALE",
    "role": "USER",
    "profilePic": "./WebContent/users/bastian/bastian1.jpg",
    "posts": [
      {
        "id": "12",
        "authorUsername": "bastian",
        "image": "./WebContent/users/bastian/bastian1.jpg",
        "text": "Profile photo..",
        "comments": [],
        "timestamp": "04.02.2022. 14:37:58",
        "type": "IMAGE",
        "isDeleted": false
      },
      {
        "id": "13",
        "authorUsername": "bastian",
        "text": "I\u0027m retiring from football. cya",
        "comments": [],
        "timestamp": "04.02.2022. 14:39:06",
        "type": "POST",
        "isDeleted": false
      },
      {
        "id": "14",
        "authorUsername": "bastian",
        "image": "./WebContent/users/bastian/bastian3.jpg",
        "text": "#wifey",
        "comments": [
          {
            "id": "2",
            "authorUsername": "bastian",
            "text": "I love my Wife",
            "postDate": "04.02.2022. 15:35:32",
            "isDeleted": true
          }
        ],
        "timestamp": "04.02.2022. 14:39:23",
        "type": "IMAGE",
        "isDeleted": true
      }
    ],
    "friendRequests": [],
    "friendList": [],
    "isPrivate": false,
    "isBlocked": false
  },
  "leomessi": {
    "username": "leomessi",
    "password": "leomessi",
    "email": "leomessi@gmail.com",
    "name": "Lionel",
    "surname": "Messi",
    "dateOfBirth": "24.06.1987.",
    "gender": "MALE",
    "role": "USER",
    "profilePic": "./WebContent/users/leomessi/leomessi1.jpg",
    "posts": [
      {
        "id": "1",
        "authorUsername": "leomessi",
        "image": "./WebContent/users/leomessi/leomessi1.jpg",
        "text": "Profile photo",
        "comments": [],
        "timestamp": "04.02.2022. 13:56:50",
        "type": "IMAGE",
        "isDeleted": false
      },
      {
        "id": "2",
        "authorUsername": "leomessi",
        "image": "./WebContent/users/leomessi/leomessi2.jpg",
        "text": "Glad to have joined this team.",
        "comments": [],
        "timestamp": "04.02.2022. 14:09:25",
        "type": "POST",
        "isDeleted": false
      },
      {
        "id": "3",
        "authorUsername": "leomessi",
        "image": "./WebContent/users/leomessi/leomessi3.jpg",
        "comments": [],
        "timestamp": "04.02.2022. 14:10:11",
        "type": "IMAGE",
        "isDeleted": false
      }
    ],
    "friendRequests": [
      {
        "id": "1",
        "sender": "pogboom",
        "recipient": "leomessi",
        "status": "ACCEPTED",
        "timestamp": "04.02.2022. 14:56:00"
      },
      {
        "id": "2",
        "sender": "cristiano",
        "recipient": "leomessi",
        "status": "ACCEPTED",
        "timestamp": "04.02.2022. 14:56:17"
      },
      {
        "id": "4",
        "sender": "djosa",
        "recipient": "leomessi",
        "status": "ACCEPTED",
        "timestamp": "04.02.2022. 14:56:35"
      }
    ],
    "friendList": [
      "pogboom",
      "djosa"
    ],
    "isPrivate": true,
    "isBlocked": false
  },
  "jovansa": {
    "username": "jovansa",
    "password": "jovansa",
    "email": "jtomic1@gmail.com",
    "name": "Jovan",
    "surname": "Tomic",
    "dateOfBirth": "25.06.2000.",
    "gender": "MALE",
    "role": "ADMINISTRATOR",
    "profilePic": "./WebContent/img/default_profile_pic.jpg",
    "posts": [],
    "friendRequests": [],
    "friendList": [
      "neymar"
    ],
    "isPrivate": false,
    "isBlocked": false
  },
  "cristiano": {
    "username": "cristiano",
    "password": "cristiano",
    "email": "cr7@yahoo.com",
    "name": "Cristiano",
    "surname": "Penaldo",
    "dateOfBirth": "05.02.1985.",
    "gender": "MALE",
    "role": "USER",
    "profilePic": "./WebContent/users/cristiano/cristiano1.png",
    "posts": [
      {
        "id": "7",
        "authorUsername": "cristiano",
        "image": "./WebContent/users/cristiano/cristiano1.png",
        "comments": [],
        "timestamp": "04.02.2022. 14:31:02",
        "type": "IMAGE",
        "isDeleted": false
      },
      {
        "id": "8",
        "authorUsername": "cristiano",
        "image": "./WebContent/users/cristiano/cristiano2.jpg",
        "text": "Siuuuu",
        "comments": [],
        "timestamp": "04.02.2022. 14:32:16",
        "type": "IMAGE",
        "isDeleted": false
      },
      {
        "id": "9",
        "authorUsername": "cristiano",
        "image": "./WebContent/users/cristiano/cristiano3.png",
        "text": "Hala Madrid",
        "comments": [],
        "timestamp": "04.02.2022. 14:33:58",
        "type": "POST",
        "isDeleted": false
      }
    ],
    "friendRequests": [
      {
        "id": "5",
        "sender": "djosa",
        "recipient": "cristiano",
        "status": "ACCEPTED",
        "timestamp": "04.02.2022. 14:56:51"
      }
    ],
    "friendList": [
      "pogboom",
      "djosa"
    ],
    "isPrivate": false,
    "isBlocked": false
  },
  "armandoo": {
    "username": "armandoo",
    "password": "armandoo",
    "email": "diego@aol.com",
    "name": "Diego",
    "surname": "Maradona",
    "dateOfBirth": "30.10.1960.",
    "gender": "MALE",
    "role": "USER",
    "profilePic": "./WebContent/users/armandoo/armandoo2.jpg",
    "posts": [
      {
        "id": "15",
        "authorUsername": "armandoo",
        "text": "Forza Napoli",
        "comments": [],
        "timestamp": "04.02.2022. 14:39:53",
        "type": "POST",
        "isDeleted": false
      },
      {
        "id": "16",
        "authorUsername": "armandoo",
        "image": "./WebContent/users/armandoo/armandoo2.jpg",
        "text": "Armandooo",
        "comments": [],
        "timestamp": "04.02.2022. 14:40:26",
        "type": "IMAGE",
        "isDeleted": false
      },
      {
        "id": "17",
        "authorUsername": "armandoo",
        "image": "./WebContent/users/armandoo/armandoo3.jpg",
        "text": "Troublemaker",
        "comments": [],
        "timestamp": "04.02.2022. 14:41:20",
        "type": "IMAGE",
        "isDeleted": false
      }
    ],
    "friendRequests": [],
    "friendList": [],
    "isPrivate": false,
    "isBlocked": false
  },
  "robert_lewa": {
    "username": "robert_lewa",
    "password": "robertlewa",
    "email": "robbed@gmail.com",
    "name": "Robert",
    "surname": "Lewandowski",
    "dateOfBirth": "21.08.1988.",
    "gender": "FEMALE",
    "role": "USER",
    "profilePic": "./WebContent/users/robert_lewa/robert_lewa1.jpg",
    "posts": [
      {
        "id": "10",
        "authorUsername": "robert_lewa",
        "image": "./WebContent/users/robert_lewa/robert_lewa1.jpg",
        "text": "Boss",
        "comments": [],
        "timestamp": "04.02.2022. 14:36:07",
        "type": "IMAGE",
        "isDeleted": false
      },
      {
        "id": "11",
        "authorUsername": "robert_lewa",
        "text": "Mia san mia",
        "comments": [],
        "timestamp": "04.02.2022. 14:36:49",
        "type": "POST",
        "isDeleted": true
      },
      {
        "id": "24",
        "authorUsername": "robert_lewa",
        "text": "Test",
        "comments": [],
        "timestamp": "04.02.2022. 14:49:35",
        "type": "POST",
        "isDeleted": true
      }
    ],
    "friendRequests": [],
    "friendList": [],
    "isPrivate": false,
    "isBlocked": false
  },
  "pogboom": {
    "username": "pogboom",
    "password": "pogboom",
    "email": "paul.pogba@live.com",
    "name": "Paul",
    "surname": "Pogba",
    "dateOfBirth": "15.03.1993.",
    "gender": "FEMALE",
    "role": "USER",
    "profilePic": "./WebContent/users/pogboom/pogboom1.jpg",
    "posts": [
      {
        "id": "18",
        "authorUsername": "pogboom",
        "image": "./WebContent/users/pogboom/pogboom1.jpg",
        "text": "Pogboom",
        "comments": [],
        "timestamp": "04.02.2022. 14:42:44",
        "type": "IMAGE",
        "isDeleted": false
      },
      {
        "id": "19",
        "authorUsername": "pogboom",
        "text": "France is the best",
        "comments": [],
        "timestamp": "04.02.2022. 14:42:55",
        "type": "POST",
        "isDeleted": true
      },
      {
        "id": "20",
        "authorUsername": "pogboom",
        "image": "./WebContent/users/pogboom/pogboom3.jpg",
        "text": "MANU FOREVER",
        "comments": [],
        "timestamp": "04.02.2022. 14:43:39",
        "type": "IMAGE",
        "isDeleted": false
      },
      {
        "id": "25",
        "authorUsername": "pogboom",
        "text": "France is the best",
        "comments": [
          {
            "id": "1",
            "authorUsername": "pogboom",
            "text": "Test comment?",
            "postDate": "04.02.2022. 14:54:46",
            "lastModified": "04.02.2022. 14:54:55",
            "isDeleted": true
          }
        ],
        "timestamp": "04.02.2022. 14:53:07",
        "type": "POST",
        "isDeleted": false
      }
    ],
    "friendRequests": [
      {
        "id": "3",
        "sender": "cristiano",
        "recipient": "pogboom",
        "status": "ACCEPTED",
        "timestamp": "04.02.2022. 14:56:24"
      },
      {
        "id": "6",
        "sender": "djosa",
        "recipient": "pogboom",
        "status": "ACCEPTED",
        "timestamp": "04.02.2022. 14:56:55"
      }
    ],
    "friendList": [
      "leomessi",
      "cristiano",
      "djosa"
    ],
    "isPrivate": false,
    "isBlocked": false
  }
}